{
  "success": true,
  "data": {
    "items": [
      {
        "id": 5,
        "title": "Тестовая новость 03-11"
      },
      {
        "id": 11,
        "title": "текст другой"
      },
      {
        "id": 6,
        "title": "Новость федерал 1"
      },
      {
        "id": 7,
        "title": "Новость федерал 2"
      },
      {
        "id": 8,
        "title": "Новость федерал 3"
      },
      {
        "id": 9,
        "title": "Новость федерал 4"
      },
      {
        "id": 10,
        "title": "Новость Регион 1"
      },
      {
        "id": 12,
        "title": "Новость Регион 3"
      },
      {
        "id": 13,
        "title": "Новость Регион 4"
      },
      {
        "id": 14,
        "title": "Новость Регион 5"
      },
      {
        "id": 15,
        "title": "Новость Муниципальная 1"
      },
      {
        "id": 16,
        "title": "Новость Муниципальная 2"
      },
      {
        "id": 17,
        "title": "Новость Муниципальная 2Новость Муниципальная 2Новость Муниципальная 2Новость Муниципальная 2"
      },
      {
        "id": 18,
        "title": "Новость Муниципальная 3Новость Муниципальная 3Новость Муниципальная 3Новость Муниципальная 3"
      },
      {
        "id": 19,
        "title": "Новость Муниципальная 4"
      },
      {
        "id": 20,
        "title": "Новость Муниципальная 5Новость Муниципальная 5Новость Муниципальная 5Новость Муниципальная 5Новость "
      },
      {
        "id": 4,
        "title": "Новость для АПИ"
      },
      {
        "id": 1,
        "title": "Новость 1"
      },
      {
        "id": 21,
        "title": "Новость Муниципальная 6"
      },
      {
        "id": 22,
        "title": "Новость Муниципальная 7"
      }
    ],
    "_links": {
      "self": {
        "href": "http://130.193.35.28:8080/v1/news?q=%2Fv1%2Fnews&page=1"
      },
      "next": {
        "href": "http://130.193.35.28:8080/v1/news?q=%2Fv1%2Fnews&page=2"
      },
      "last": {
        "href": "http://130.193.35.28:8080/v1/news?q=%2Fv1%2Fnews&page=2"
      }
    },
    "_meta": {
      "total_count": 23,
      "page_count": 2,
      "current_page": 1,
      "per_page": 20
    }
  }
}